<svg width="157" height="160" viewBox="0 0 157 160" fill="none" xmlns="http://www.w3.org/2000/svg">
<mask id="path-1-inside-1" fill="white">
<path fill-rule="evenodd" clip-rule="evenodd" d="M52.5063 48.1233C59.8782 55.4953 60.5822 66.7436 54.0786 73.2471L48.9626 78.3632C47.2317 80.094 47.0003 82.8296 48.4928 84.7697C52.0696 89.4196 56.1648 94.0941 60.7159 98.6452C65.2673 103.196 69.942 107.292 74.5921 110.869C76.5323 112.361 79.2678 112.13 80.9986 110.399L86.1148 105.283C92.6184 98.7793 103.867 99.4833 111.239 106.855C118.611 114.227 119.314 125.475 112.811 131.979C112.775 132.014 112.739 132.049 112.702 132.084C112.496 132.277 112.287 132.468 112.094 132.674C111.91 132.872 111.722 133.067 111.53 133.258C97.1143 147.674 66.304 140.237 42.7138 116.647C19.1236 93.0571 11.6867 62.2468 26.1029 47.8306C26.2962 47.6373 26.4925 47.4479 26.6916 47.2624C26.8975 47.0707 27.087 46.8622 27.2797 46.6571C27.3135 46.621 27.3478 46.5857 27.3825 46.551C33.886 40.0474 45.1343 40.7514 52.5063 48.1233Z"/>
</mask>
<path d="M54.0786 73.2471L56.1999 75.3684L54.0786 73.2471ZM112.702 132.084L110.65 129.896L112.702 132.084ZM112.094 132.674L109.899 130.629L112.094 132.674ZM48.9626 78.3632L46.8412 76.2419L48.9626 78.3632ZM48.4928 84.7697L46.1149 86.5989L48.4928 84.7697ZM56.1999 75.3684C64.1171 67.4513 62.9134 54.2879 54.6276 46.002L50.385 50.2446C56.843 56.7027 57.0472 66.0359 51.9573 71.1258L56.1999 75.3684ZM51.0839 80.4845L56.1999 75.3684L51.9573 71.1258L46.8412 76.2419L51.0839 80.4845ZM62.8372 96.5238C58.3752 92.0618 54.3661 87.4846 50.8706 82.9405L46.1149 86.5989C49.7731 91.3545 53.9544 96.1263 58.5946 100.766L62.8372 96.5238ZM76.4213 108.491C71.8769 104.995 67.2995 100.986 62.8372 96.5238L58.5946 100.766C63.235 105.407 68.0071 109.588 72.763 113.247L76.4213 108.491ZM83.9935 103.162L78.8773 108.278L83.1199 112.52L88.2361 107.404L83.9935 103.162ZM113.36 104.734C105.074 96.4481 91.9106 95.2444 83.9935 103.162L88.2361 107.404C93.3261 102.314 102.659 102.519 109.117 108.977L113.36 104.734ZM114.932 134.1C122.849 126.183 121.646 113.02 113.36 104.734L109.117 108.977C115.575 115.435 115.78 124.768 110.69 129.858L114.932 134.1ZM114.755 134.272C114.815 134.216 114.874 134.159 114.932 134.1L110.69 129.858C110.677 129.87 110.664 129.883 110.65 129.896L114.755 134.272ZM113.652 135.38C113.868 135.163 114.081 134.943 114.289 134.72L109.899 130.629C109.739 130.801 109.576 130.97 109.409 131.137L113.652 135.38ZM40.5925 118.769C52.7129 130.889 66.7856 138.966 79.8585 142.121C92.8727 145.263 105.425 143.606 113.652 135.38L109.409 131.137C103.22 137.326 93.1588 139.16 81.2663 136.289C69.4324 133.432 56.3049 125.996 44.8351 114.526L40.5925 118.769ZM23.9816 45.7093C15.7548 53.936 14.0983 66.4884 17.2397 79.5026C20.3952 92.5755 28.4721 106.648 40.5925 118.769L44.8351 114.526C33.3653 103.056 25.9286 89.9287 23.0722 78.0948C20.2016 66.2023 22.0347 56.1414 28.2242 49.9519L23.9816 45.7093ZM24.6471 45.067C24.4219 45.2767 24.2 45.4908 23.9816 45.7093L28.2242 49.9519C28.3924 49.7838 28.563 49.6191 28.7362 49.4578L24.6471 45.067ZM25.2612 44.4297C25.2041 44.4868 25.148 44.5446 25.093 44.6032L29.4663 48.711C29.479 48.6975 29.4915 48.6846 29.5038 48.6723L25.2612 44.4297ZM54.6276 46.002C46.3417 37.7162 33.1783 36.5125 25.2612 44.4297L29.5038 48.6723C34.5937 43.5824 43.9269 43.7866 50.385 50.2446L54.6276 46.002ZM110.65 129.896C110.495 130.041 110.181 130.327 109.899 130.629L114.289 134.72C114.393 134.608 114.498 134.513 114.755 134.272L110.65 129.896ZM72.763 113.247C75.9465 115.696 80.368 115.272 83.1199 112.52L78.8773 108.278C78.1676 108.987 77.118 109.027 76.4213 108.491L72.763 113.247ZM28.7362 49.4578C29.0368 49.1779 29.3217 48.865 29.4663 48.711L25.093 44.6032C24.8524 44.8594 24.7582 44.9635 24.6471 45.067L28.7362 49.4578ZM46.8412 76.2419C44.0892 78.9939 43.666 83.4153 46.1149 86.5989L50.8706 82.9405C50.3347 82.2438 50.3742 81.1942 51.0839 80.4845L46.8412 76.2419Z" fill="#373737" mask="url(#path-1-inside-1)"/>
<path fill-rule="evenodd" clip-rule="evenodd" d="M156.385 80.4358C153.134 36.2661 115.171 2.75463 70.9397 5.00977L71.1262 8.00417C113.704 5.85173 150.243 38.1063 153.391 80.6223L156.385 80.4358ZM133.935 81.8341C131.459 50.0626 104.171 25.9746 72.338 27.4606L72.5245 30.4551C102.704 29.0717 128.568 51.9028 130.94 82.0206L133.935 81.8341ZM111.481 83.2325C109.784 63.8592 93.1706 49.1934 73.7364 49.9135L73.923 52.9088C91.7032 52.2901 106.894 65.6994 108.486 83.4191L111.481 83.2325Z" fill="#D3B92C"/>
</svg>
