<svg width="27" height="26" viewBox="0 0 27 26" fill="none" xmlns="http://www.w3.org/2000/svg">
<path d="M1.61257 24.8931C2.11366 19.9292 6.30476 16.0547 11.4008 16.0547H15.5857C20.6817 16.0547 24.8728 19.9292 25.3739 24.8931H1.61257Z" stroke="#373737" stroke-width="2"/>
<path d="M18.2437 6.49694C18.2437 9.6288 16.0098 11.9624 13.4931 11.9624C10.9764 11.9624 8.74255 9.6288 8.74255 6.49694C8.74255 3.36508 10.9764 1.03149 13.4931 1.03149C16.0098 1.03149 18.2437 3.36508 18.2437 6.49694Z" stroke="#373737" stroke-width="2"/>
</svg>
