<svg width="27" height="27" viewBox="0 0 27 27" fill="none" xmlns="http://www.w3.org/2000/svg">
<circle cx="10.5571" cy="10.9344" r="8.96526" transform="rotate(-90 10.5571 10.9344)" stroke="#373737" stroke-width="2"/>
<rect width="2" height="12.7094" transform="matrix(0.707107 -0.707106 0.707108 0.707106 16.4733 17.9688)" fill="#373737"/>
</svg>
