<svg width="52" height="50" viewBox="0 0 52 50" fill="none" xmlns="http://www.w3.org/2000/svg">
<path d="M4.75185 45.9933C6.13155 45.9933 7.2905 45.9933 8.61502 45.9933C8.61502 30.653 8.61502 15.3952 8.61502 0C12.5886 0 16.4242 0 20.4253 0C20.4253 15.2853 20.4253 30.5705 20.4253 45.9657C29.3658 45.9657 38.1683 45.9657 47.0536 45.9657C47.0536 44.7561 47.0536 43.5465 47.0536 42.1719C39.5204 42.1719 32.0424 42.1719 24.5092 42.1719C24.5092 38.2132 24.5092 34.4193 24.5092 30.543C33.3118 30.543 42.1143 30.543 50.9996 30.543C50.9996 31.7527 50.9996 32.9623 50.9996 34.3094C43.4664 34.3094 35.9884 34.3094 28.4276 34.3094C28.4276 35.6565 28.4276 36.8661 28.4276 38.2406C29.0071 38.2406 29.5314 38.2406 30.0832 38.2406C36.623 38.2406 43.1352 38.2681 49.675 38.2132C50.8064 38.2132 51.1651 38.5156 51.1376 39.6977C51.0548 43.0792 51.1099 46.4606 51.1099 49.9245C39.5204 49.9245 28.0965 49.9245 16.5621 49.9245C16.5621 34.5568 16.5621 19.299 16.5621 3.9313C15.2376 3.9313 14.0235 3.9313 12.6714 3.9313C12.6714 19.2166 12.6714 34.5018 12.6714 49.897C8.67021 49.897 4.80704 49.897 0.861084 49.897C0.861084 33.2922 0.861084 16.7148 0.861084 0.0549863C2.13041 0.0549863 3.34455 0.0549863 4.75185 0.0549863C4.75185 15.2853 4.75185 30.598 4.75185 45.9933Z" fill="#373737"/>
<path d="M50.972 26.3093C42.1695 26.3093 33.3946 26.3093 24.5369 26.3093C24.5369 17.567 24.5369 8.85226 24.5369 0C33.2842 0 42.0591 0 50.972 0C50.972 8.74229 50.972 17.4846 50.972 26.3093Z" fill="#373737"/>
</svg>
